{
  "version": "v4",
  "repo": "borisyankov/DefinitelyTyped",
  "ref": "master",
  "path": "typings",
  "bundle": "typings/tsd.d.ts",
  "installed": {
    "angularjs/angular.d.ts": {
      "commit": "e850b6ac0d59fee86dd7cb6a1be2caf6400bde14"
    },
    "angularjs/angular-route.d.ts": {
      "commit": "001ca36ba58cef903c4c063555afb07bbc36bb58"
    },
    "jquery/jquery.d.ts": {
      "commit": "2743ece76d3b31df635afdc39c63ed13acf393ad"
    }
  }
}